^C:\COLLEGE\4TH YEAR\MULTI-PLAYER DISTRIBUTED PROGRAMMING(C++)\CA1\MULTIPLAYER_CA1\MPCA1_STEPHENOMALLEY\MPCA1_STEPHENOMALLEY\ANIMATION.CPP
/c /I"C:\COLLEGE\4TH YEAR\MULTI-PLAYER DISTRIBUTED PROGRAMMING(C++)\SFML-2.5.0-WINDOWS-VC15-32-BIT\SFML-2.5.0\INCLUDE" /ZI /nologo /W3 /WX- /diagnostics:classic /sdl /Od /Oy- /D _MBCS /Gm /EHsc /RTC1 /MDd /GS /fp:precise /permissive- /Zc:wchar_t /Zc:forScope /Zc:inline /Fo"DEBUG\\" /Fd"DEBUG\VC141.PDB" /Gd /TP /analyze- C:\COLLEGE\4TH YEAR\MULTI-PLAYER DISTRIBUTED PROGRAMMING(C++)\CA1\MULTIPLAYER_CA1\MPCA1_STEPHENOMALLEY\MPCA1_STEPHENOMALLEY\ANIMATION.CPP
^C:\COLLEGE\4TH YEAR\MULTI-PLAYER DISTRIBUTED PROGRAMMING(C++)\CA1\MULTIPLAYER_CA1\MPCA1_STEPHENOMALLEY\MPCA1_STEPHENOMALLEY\APPLICATION.CPP
/c /I"C:\COLLEGE\4TH YEAR\MULTI-PLAYER DISTRIBUTED PROGRAMMING(C++)\SFML-2.5.0-WINDOWS-VC15-32-BIT\SFML-2.5.0\INCLUDE" /ZI /nologo /W3 /WX- /diagnostics:classic /sdl /Od /Oy- /D _MBCS /Gm /EHsc /RTC1 /MDd /GS /fp:precise /permissive- /Zc:wchar_t /Zc:forScope /Zc:inline /Fo"DEBUG\\" /Fd"DEBUG\VC141.PDB" /Gd /TP /analyze- C:\COLLEGE\4TH YEAR\MULTI-PLAYER DISTRIBUTED PROGRAMMING(C++)\CA1\MULTIPLAYER_CA1\MPCA1_STEPHENOMALLEY\MPCA1_STEPHENOMALLEY\APPLICATION.CPP
^C:\COLLEGE\4TH YEAR\MULTI-PLAYER DISTRIBUTED PROGRAMMING(C++)\CA1\MULTIPLAYER_CA1\MPCA1_STEPHENOMALLEY\MPCA1_STEPHENOMALLEY\BLOOMEFFECT.CPP
/c /I"C:\COLLEGE\4TH YEAR\MULTI-PLAYER DISTRIBUTED PROGRAMMING(C++)\SFML-2.5.0-WINDOWS-VC15-32-BIT\SFML-2.5.0\INCLUDE" /ZI /nologo /W3 /WX- /diagnostics:classic /sdl /Od /Oy- /D _MBCS /Gm /EHsc /RTC1 /MDd /GS /fp:precise /permissive- /Zc:wchar_t /Zc:forScope /Zc:inline /Fo"DEBUG\\" /Fd"DEBUG\VC141.PDB" /Gd /TP /analyze- C:\COLLEGE\4TH YEAR\MULTI-PLAYER DISTRIBUTED PROGRAMMING(C++)\CA1\MULTIPLAYER_CA1\MPCA1_STEPHENOMALLEY\MPCA1_STEPHENOMALLEY\BLOOMEFFECT.CPP
^C:\COLLEGE\4TH YEAR\MULTI-PLAYER DISTRIBUTED PROGRAMMING(C++)\CA1\MULTIPLAYER_CA1\MPCA1_STEPHENOMALLEY\MPCA1_STEPHENOMALLEY\BUTTON.CPP
/c /I"C:\COLLEGE\4TH YEAR\MULTI-PLAYER DISTRIBUTED PROGRAMMING(C++)\SFML-2.5.0-WINDOWS-VC15-32-BIT\SFML-2.5.0\INCLUDE" /ZI /nologo /W3 /WX- /diagnostics:classic /sdl /Od /Oy- /D _MBCS /Gm /EHsc /RTC1 /MDd /GS /fp:precise /permissive- /Zc:wchar_t /Zc:forScope /Zc:inline /Fo"DEBUG\\" /Fd"DEBUG\VC141.PDB" /Gd /TP /analyze- C:\COLLEGE\4TH YEAR\MULTI-PLAYER DISTRIBUTED PROGRAMMING(C++)\CA1\MULTIPLAYER_CA1\MPCA1_STEPHENOMALLEY\MPCA1_STEPHENOMALLEY\BUTTON.CPP
^C:\COLLEGE\4TH YEAR\MULTI-PLAYER DISTRIBUTED PROGRAMMING(C++)\CA1\MULTIPLAYER_CA1\MPCA1_STEPHENOMALLEY\MPCA1_STEPHENOMALLEY\COMMAND.CPP
/c /I"C:\COLLEGE\4TH YEAR\MULTI-PLAYER DISTRIBUTED PROGRAMMING(C++)\SFML-2.5.0-WINDOWS-VC15-32-BIT\SFML-2.5.0\INCLUDE" /ZI /nologo /W3 /WX- /diagnostics:classic /sdl /Od /Oy- /D _MBCS /Gm /EHsc /RTC1 /MDd /GS /fp:precise /permissive- /Zc:wchar_t /Zc:forScope /Zc:inline /Fo"DEBUG\\" /Fd"DEBUG\VC141.PDB" /Gd /TP /analyze- C:\COLLEGE\4TH YEAR\MULTI-PLAYER DISTRIBUTED PROGRAMMING(C++)\CA1\MULTIPLAYER_CA1\MPCA1_STEPHENOMALLEY\MPCA1_STEPHENOMALLEY\COMMAND.CPP
^C:\COLLEGE\4TH YEAR\MULTI-PLAYER DISTRIBUTED PROGRAMMING(C++)\CA1\MULTIPLAYER_CA1\MPCA1_STEPHENOMALLEY\MPCA1_STEPHENOMALLEY\COMMANDER.CPP
/c /I"C:\COLLEGE\4TH YEAR\MULTI-PLAYER DISTRIBUTED PROGRAMMING(C++)\SFML-2.5.0-WINDOWS-VC15-32-BIT\SFML-2.5.0\INCLUDE" /ZI /nologo /W3 /WX- /diagnostics:classic /sdl /Od /Oy- /D _MBCS /Gm /EHsc /RTC1 /MDd /GS /fp:precise /permissive- /Zc:wchar_t /Zc:forScope /Zc:inline /Fo"DEBUG\\" /Fd"DEBUG\VC141.PDB" /Gd /TP /analyze- C:\COLLEGE\4TH YEAR\MULTI-PLAYER DISTRIBUTED PROGRAMMING(C++)\CA1\MULTIPLAYER_CA1\MPCA1_STEPHENOMALLEY\MPCA1_STEPHENOMALLEY\COMMANDER.CPP
^C:\COLLEGE\4TH YEAR\MULTI-PLAYER DISTRIBUTED PROGRAMMING(C++)\CA1\MULTIPLAYER_CA1\MPCA1_STEPHENOMALLEY\MPCA1_STEPHENOMALLEY\COMMANDQUEUE.CPP
/c /I"C:\COLLEGE\4TH YEAR\MULTI-PLAYER DISTRIBUTED PROGRAMMING(C++)\SFML-2.5.0-WINDOWS-VC15-32-BIT\SFML-2.5.0\INCLUDE" /ZI /nologo /W3 /WX- /diagnostics:classic /sdl /Od /Oy- /D _MBCS /Gm /EHsc /RTC1 /MDd /GS /fp:precise /permissive- /Zc:wchar_t /Zc:forScope /Zc:inline /Fo"DEBUG\\" /Fd"DEBUG\VC141.PDB" /Gd /TP /analyze- C:\COLLEGE\4TH YEAR\MULTI-PLAYER DISTRIBUTED PROGRAMMING(C++)\CA1\MULTIPLAYER_CA1\MPCA1_STEPHENOMALLEY\MPCA1_STEPHENOMALLEY\COMMANDQUEUE.CPP
^C:\COLLEGE\4TH YEAR\MULTI-PLAYER DISTRIBUTED PROGRAMMING(C++)\CA1\MULTIPLAYER_CA1\MPCA1_STEPHENOMALLEY\MPCA1_STEPHENOMALLEY\COMPONENT.CPP
/c /I"C:\COLLEGE\4TH YEAR\MULTI-PLAYER DISTRIBUTED PROGRAMMING(C++)\SFML-2.5.0-WINDOWS-VC15-32-BIT\SFML-2.5.0\INCLUDE" /ZI /nologo /W3 /WX- /diagnostics:classic /sdl /Od /Oy- /D _MBCS /Gm /EHsc /RTC1 /MDd /GS /fp:precise /permissive- /Zc:wchar_t /Zc:forScope /Zc:inline /Fo"DEBUG\\" /Fd"DEBUG\VC141.PDB" /Gd /TP /analyze- C:\COLLEGE\4TH YEAR\MULTI-PLAYER DISTRIBUTED PROGRAMMING(C++)\CA1\MULTIPLAYER_CA1\MPCA1_STEPHENOMALLEY\MPCA1_STEPHENOMALLEY\COMPONENT.CPP
^C:\COLLEGE\4TH YEAR\MULTI-PLAYER DISTRIBUTED PROGRAMMING(C++)\CA1\MULTIPLAYER_CA1\MPCA1_STEPHENOMALLEY\MPCA1_STEPHENOMALLEY\CONTAINER.CPP
/c /I"C:\COLLEGE\4TH YEAR\MULTI-PLAYER DISTRIBUTED PROGRAMMING(C++)\SFML-2.5.0-WINDOWS-VC15-32-BIT\SFML-2.5.0\INCLUDE" /ZI /nologo /W3 /WX- /diagnostics:classic /sdl /Od /Oy- /D _MBCS /Gm /EHsc /RTC1 /MDd /GS /fp:precise /permissive- /Zc:wchar_t /Zc:forScope /Zc:inline /Fo"DEBUG\\" /Fd"DEBUG\VC141.PDB" /Gd /TP /analyze- C:\COLLEGE\4TH YEAR\MULTI-PLAYER DISTRIBUTED PROGRAMMING(C++)\CA1\MULTIPLAYER_CA1\MPCA1_STEPHENOMALLEY\MPCA1_STEPHENOMALLEY\CONTAINER.CPP
^C:\COLLEGE\4TH YEAR\MULTI-PLAYER DISTRIBUTED PROGRAMMING(C++)\CA1\MULTIPLAYER_CA1\MPCA1_STEPHENOMALLEY\MPCA1_STEPHENOMALLEY\DATATABLES.CPP
/c /I"C:\COLLEGE\4TH YEAR\MULTI-PLAYER DISTRIBUTED PROGRAMMING(C++)\SFML-2.5.0-WINDOWS-VC15-32-BIT\SFML-2.5.0\INCLUDE" /ZI /nologo /W3 /WX- /diagnostics:classic /sdl /Od /Oy- /D _MBCS /Gm /EHsc /RTC1 /MDd /GS /fp:precise /permissive- /Zc:wchar_t /Zc:forScope /Zc:inline /Fo"DEBUG\\" /Fd"DEBUG\VC141.PDB" /Gd /TP /analyze- C:\COLLEGE\4TH YEAR\MULTI-PLAYER DISTRIBUTED PROGRAMMING(C++)\CA1\MULTIPLAYER_CA1\MPCA1_STEPHENOMALLEY\MPCA1_STEPHENOMALLEY\DATATABLES.CPP
^C:\COLLEGE\4TH YEAR\MULTI-PLAYER DISTRIBUTED PROGRAMMING(C++)\CA1\MULTIPLAYER_CA1\MPCA1_STEPHENOMALLEY\MPCA1_STEPHENOMALLEY\EMITTERNODE.CPP
/c /I"C:\COLLEGE\4TH YEAR\MULTI-PLAYER DISTRIBUTED PROGRAMMING(C++)\SFML-2.5.0-WINDOWS-VC15-32-BIT\SFML-2.5.0\INCLUDE" /ZI /nologo /W3 /WX- /diagnostics:classic /sdl /Od /Oy- /D _MBCS /Gm /EHsc /RTC1 /MDd /GS /fp:precise /permissive- /Zc:wchar_t /Zc:forScope /Zc:inline /Fo"DEBUG\\" /Fd"DEBUG\VC141.PDB" /Gd /TP /analyze- C:\COLLEGE\4TH YEAR\MULTI-PLAYER DISTRIBUTED PROGRAMMING(C++)\CA1\MULTIPLAYER_CA1\MPCA1_STEPHENOMALLEY\MPCA1_STEPHENOMALLEY\EMITTERNODE.CPP
^C:\COLLEGE\4TH YEAR\MULTI-PLAYER DISTRIBUTED PROGRAMMING(C++)\CA1\MULTIPLAYER_CA1\MPCA1_STEPHENOMALLEY\MPCA1_STEPHENOMALLEY\ENTITY.CPP
/c /I"C:\COLLEGE\4TH YEAR\MULTI-PLAYER DISTRIBUTED PROGRAMMING(C++)\SFML-2.5.0-WINDOWS-VC15-32-BIT\SFML-2.5.0\INCLUDE" /ZI /nologo /W3 /WX- /diagnostics:classic /sdl /Od /Oy- /D _MBCS /Gm /EHsc /RTC1 /MDd /GS /fp:precise /permissive- /Zc:wchar_t /Zc:forScope /Zc:inline /Fo"DEBUG\\" /Fd"DEBUG\VC141.PDB" /Gd /TP /analyze- C:\COLLEGE\4TH YEAR\MULTI-PLAYER DISTRIBUTED PROGRAMMING(C++)\CA1\MULTIPLAYER_CA1\MPCA1_STEPHENOMALLEY\MPCA1_STEPHENOMALLEY\ENTITY.CPP
^C:\COLLEGE\4TH YEAR\MULTI-PLAYER DISTRIBUTED PROGRAMMING(C++)\CA1\MULTIPLAYER_CA1\MPCA1_STEPHENOMALLEY\MPCA1_STEPHENOMALLEY\GAMEOVERSTATE.CPP
/c /I"C:\COLLEGE\4TH YEAR\MULTI-PLAYER DISTRIBUTED PROGRAMMING(C++)\SFML-2.5.0-WINDOWS-VC15-32-BIT\SFML-2.5.0\INCLUDE" /ZI /nologo /W3 /WX- /diagnostics:classic /sdl /Od /Oy- /D _MBCS /Gm /EHsc /RTC1 /MDd /GS /fp:precise /permissive- /Zc:wchar_t /Zc:forScope /Zc:inline /Fo"DEBUG\\" /Fd"DEBUG\VC141.PDB" /Gd /TP /analyze- C:\COLLEGE\4TH YEAR\MULTI-PLAYER DISTRIBUTED PROGRAMMING(C++)\CA1\MULTIPLAYER_CA1\MPCA1_STEPHENOMALLEY\MPCA1_STEPHENOMALLEY\GAMEOVERSTATE.CPP
^C:\COLLEGE\4TH YEAR\MULTI-PLAYER DISTRIBUTED PROGRAMMING(C++)\CA1\MULTIPLAYER_CA1\MPCA1_STEPHENOMALLEY\MPCA1_STEPHENOMALLEY\GAMESTATE.CPP
/c /I"C:\COLLEGE\4TH YEAR\MULTI-PLAYER DISTRIBUTED PROGRAMMING(C++)\SFML-2.5.0-WINDOWS-VC15-32-BIT\SFML-2.5.0\INCLUDE" /ZI /nologo /W3 /WX- /diagnostics:classic /sdl /Od /Oy- /D _MBCS /Gm /EHsc /RTC1 /MDd /GS /fp:precise /permissive- /Zc:wchar_t /Zc:forScope /Zc:inline /Fo"DEBUG\\" /Fd"DEBUG\VC141.PDB" /Gd /TP /analyze- C:\COLLEGE\4TH YEAR\MULTI-PLAYER DISTRIBUTED PROGRAMMING(C++)\CA1\MULTIPLAYER_CA1\MPCA1_STEPHENOMALLEY\MPCA1_STEPHENOMALLEY\GAMESTATE.CPP
^C:\COLLEGE\4TH YEAR\MULTI-PLAYER DISTRIBUTED PROGRAMMING(C++)\CA1\MULTIPLAYER_CA1\MPCA1_STEPHENOMALLEY\MPCA1_STEPHENOMALLEY\LABEL.CPP
/c /I"C:\COLLEGE\4TH YEAR\MULTI-PLAYER DISTRIBUTED PROGRAMMING(C++)\SFML-2.5.0-WINDOWS-VC15-32-BIT\SFML-2.5.0\INCLUDE" /ZI /nologo /W3 /WX- /diagnostics:classic /sdl /Od /Oy- /D _MBCS /Gm /EHsc /RTC1 /MDd /GS /fp:precise /permissive- /Zc:wchar_t /Zc:forScope /Zc:inline /Fo"DEBUG\\" /Fd"DEBUG\VC141.PDB" /Gd /TP /analyze- C:\COLLEGE\4TH YEAR\MULTI-PLAYER DISTRIBUTED PROGRAMMING(C++)\CA1\MULTIPLAYER_CA1\MPCA1_STEPHENOMALLEY\MPCA1_STEPHENOMALLEY\LABEL.CPP
^C:\COLLEGE\4TH YEAR\MULTI-PLAYER DISTRIBUTED PROGRAMMING(C++)\CA1\MULTIPLAYER_CA1\MPCA1_STEPHENOMALLEY\MPCA1_STEPHENOMALLEY\LEVEL.CPP
/c /I"C:\COLLEGE\4TH YEAR\MULTI-PLAYER DISTRIBUTED PROGRAMMING(C++)\SFML-2.5.0-WINDOWS-VC15-32-BIT\SFML-2.5.0\INCLUDE" /ZI /nologo /W3 /WX- /diagnostics:classic /sdl /Od /Oy- /D _MBCS /Gm /EHsc /RTC1 /MDd /GS /fp:precise /permissive- /Zc:wchar_t /Zc:forScope /Zc:inline /Fo"DEBUG\\" /Fd"DEBUG\VC141.PDB" /Gd /TP /analyze- C:\COLLEGE\4TH YEAR\MULTI-PLAYER DISTRIBUTED PROGRAMMING(C++)\CA1\MULTIPLAYER_CA1\MPCA1_STEPHENOMALLEY\MPCA1_STEPHENOMALLEY\LEVEL.CPP
^C:\COLLEGE\4TH YEAR\MULTI-PLAYER DISTRIBUTED PROGRAMMING(C++)\CA1\MULTIPLAYER_CA1\MPCA1_STEPHENOMALLEY\MPCA1_STEPHENOMALLEY\LEVELSTATE.CPP
/c /I"C:\COLLEGE\4TH YEAR\MULTI-PLAYER DISTRIBUTED PROGRAMMING(C++)\SFML-2.5.0-WINDOWS-VC15-32-BIT\SFML-2.5.0\INCLUDE" /ZI /nologo /W3 /WX- /diagnostics:classic /sdl /Od /Oy- /D _MBCS /Gm /EHsc /RTC1 /MDd /GS /fp:precise /permissive- /Zc:wchar_t /Zc:forScope /Zc:inline /Fo"DEBUG\\" /Fd"DEBUG\VC141.PDB" /Gd /TP /analyze- C:\COLLEGE\4TH YEAR\MULTI-PLAYER DISTRIBUTED PROGRAMMING(C++)\CA1\MULTIPLAYER_CA1\MPCA1_STEPHENOMALLEY\MPCA1_STEPHENOMALLEY\LEVELSTATE.CPP
^C:\COLLEGE\4TH YEAR\MULTI-PLAYER DISTRIBUTED PROGRAMMING(C++)\CA1\MULTIPLAYER_CA1\MPCA1_STEPHENOMALLEY\MPCA1_STEPHENOMALLEY\MAIN.CPP
/c /I"C:\COLLEGE\4TH YEAR\MULTI-PLAYER DISTRIBUTED PROGRAMMING(C++)\SFML-2.5.0-WINDOWS-VC15-32-BIT\SFML-2.5.0\INCLUDE" /ZI /nologo /W3 /WX- /diagnostics:classic /sdl /Od /Oy- /D _MBCS /Gm /EHsc /RTC1 /MDd /GS /fp:precise /permissive- /Zc:wchar_t /Zc:forScope /Zc:inline /Fo"DEBUG\\" /Fd"DEBUG\VC141.PDB" /Gd /TP /analyze- C:\COLLEGE\4TH YEAR\MULTI-PLAYER DISTRIBUTED PROGRAMMING(C++)\CA1\MULTIPLAYER_CA1\MPCA1_STEPHENOMALLEY\MPCA1_STEPHENOMALLEY\MAIN.CPP
^C:\COLLEGE\4TH YEAR\MULTI-PLAYER DISTRIBUTED PROGRAMMING(C++)\CA1\MULTIPLAYER_CA1\MPCA1_STEPHENOMALLEY\MPCA1_STEPHENOMALLEY\MENUSTATE.CPP
/c /I"C:\COLLEGE\4TH YEAR\MULTI-PLAYER DISTRIBUTED PROGRAMMING(C++)\SFML-2.5.0-WINDOWS-VC15-32-BIT\SFML-2.5.0\INCLUDE" /ZI /nologo /W3 /WX- /diagnostics:classic /sdl /Od /Oy- /D _MBCS /Gm /EHsc /RTC1 /MDd /GS /fp:precise /permissive- /Zc:wchar_t /Zc:forScope /Zc:inline /Fo"DEBUG\\" /Fd"DEBUG\VC141.PDB" /Gd /TP /analyze- C:\COLLEGE\4TH YEAR\MULTI-PLAYER DISTRIBUTED PROGRAMMING(C++)\CA1\MULTIPLAYER_CA1\MPCA1_STEPHENOMALLEY\MPCA1_STEPHENOMALLEY\MENUSTATE.CPP
^C:\COLLEGE\4TH YEAR\MULTI-PLAYER DISTRIBUTED PROGRAMMING(C++)\CA1\MULTIPLAYER_CA1\MPCA1_STEPHENOMALLEY\MPCA1_STEPHENOMALLEY\MUSICPLAYER.CPP
/c /I"C:\COLLEGE\4TH YEAR\MULTI-PLAYER DISTRIBUTED PROGRAMMING(C++)\SFML-2.5.0-WINDOWS-VC15-32-BIT\SFML-2.5.0\INCLUDE" /ZI /nologo /W3 /WX- /diagnostics:classic /sdl /Od /Oy- /D _MBCS /Gm /EHsc /RTC1 /MDd /GS /fp:precise /permissive- /Zc:wchar_t /Zc:forScope /Zc:inline /Fo"DEBUG\\" /Fd"DEBUG\VC141.PDB" /Gd /TP /analyze- C:\COLLEGE\4TH YEAR\MULTI-PLAYER DISTRIBUTED PROGRAMMING(C++)\CA1\MULTIPLAYER_CA1\MPCA1_STEPHENOMALLEY\MPCA1_STEPHENOMALLEY\MUSICPLAYER.CPP
^C:\COLLEGE\4TH YEAR\MULTI-PLAYER DISTRIBUTED PROGRAMMING(C++)\CA1\MULTIPLAYER_CA1\MPCA1_STEPHENOMALLEY\MPCA1_STEPHENOMALLEY\PARTICLENODE.CPP
/c /I"C:\COLLEGE\4TH YEAR\MULTI-PLAYER DISTRIBUTED PROGRAMMING(C++)\SFML-2.5.0-WINDOWS-VC15-32-BIT\SFML-2.5.0\INCLUDE" /ZI /nologo /W3 /WX- /diagnostics:classic /sdl /Od /Oy- /D _MBCS /Gm /EHsc /RTC1 /MDd /GS /fp:precise /permissive- /Zc:wchar_t /Zc:forScope /Zc:inline /Fo"DEBUG\\" /Fd"DEBUG\VC141.PDB" /Gd /TP /analyze- C:\COLLEGE\4TH YEAR\MULTI-PLAYER DISTRIBUTED PROGRAMMING(C++)\CA1\MULTIPLAYER_CA1\MPCA1_STEPHENOMALLEY\MPCA1_STEPHENOMALLEY\PARTICLENODE.CPP
^C:\COLLEGE\4TH YEAR\MULTI-PLAYER DISTRIBUTED PROGRAMMING(C++)\CA1\MULTIPLAYER_CA1\MPCA1_STEPHENOMALLEY\MPCA1_STEPHENOMALLEY\PAUSESTATE.CPP
/c /I"C:\COLLEGE\4TH YEAR\MULTI-PLAYER DISTRIBUTED PROGRAMMING(C++)\SFML-2.5.0-WINDOWS-VC15-32-BIT\SFML-2.5.0\INCLUDE" /ZI /nologo /W3 /WX- /diagnostics:classic /sdl /Od /Oy- /D _MBCS /Gm /EHsc /RTC1 /MDd /GS /fp:precise /permissive- /Zc:wchar_t /Zc:forScope /Zc:inline /Fo"DEBUG\\" /Fd"DEBUG\VC141.PDB" /Gd /TP /analyze- C:\COLLEGE\4TH YEAR\MULTI-PLAYER DISTRIBUTED PROGRAMMING(C++)\CA1\MULTIPLAYER_CA1\MPCA1_STEPHENOMALLEY\MPCA1_STEPHENOMALLEY\PAUSESTATE.CPP
^C:\COLLEGE\4TH YEAR\MULTI-PLAYER DISTRIBUTED PROGRAMMING(C++)\CA1\MULTIPLAYER_CA1\MPCA1_STEPHENOMALLEY\MPCA1_STEPHENOMALLEY\PICKUP.CPP
/c /I"C:\COLLEGE\4TH YEAR\MULTI-PLAYER DISTRIBUTED PROGRAMMING(C++)\SFML-2.5.0-WINDOWS-VC15-32-BIT\SFML-2.5.0\INCLUDE" /ZI /nologo /W3 /WX- /diagnostics:classic /sdl /Od /Oy- /D _MBCS /Gm /EHsc /RTC1 /MDd /GS /fp:precise /permissive- /Zc:wchar_t /Zc:forScope /Zc:inline /Fo"DEBUG\\" /Fd"DEBUG\VC141.PDB" /Gd /TP /analyze- C:\COLLEGE\4TH YEAR\MULTI-PLAYER DISTRIBUTED PROGRAMMING(C++)\CA1\MULTIPLAYER_CA1\MPCA1_STEPHENOMALLEY\MPCA1_STEPHENOMALLEY\PICKUP.CPP
^C:\COLLEGE\4TH YEAR\MULTI-PLAYER DISTRIBUTED PROGRAMMING(C++)\CA1\MULTIPLAYER_CA1\MPCA1_STEPHENOMALLEY\MPCA1_STEPHENOMALLEY\PLAYER.CPP
/c /I"C:\COLLEGE\4TH YEAR\MULTI-PLAYER DISTRIBUTED PROGRAMMING(C++)\SFML-2.5.0-WINDOWS-VC15-32-BIT\SFML-2.5.0\INCLUDE" /ZI /nologo /W3 /WX- /diagnostics:classic /sdl /Od /Oy- /D _MBCS /Gm /EHsc /RTC1 /MDd /GS /fp:precise /permissive- /Zc:wchar_t /Zc:forScope /Zc:inline /Fo"DEBUG\\" /Fd"DEBUG\VC141.PDB" /Gd /TP /analyze- C:\COLLEGE\4TH YEAR\MULTI-PLAYER DISTRIBUTED PROGRAMMING(C++)\CA1\MULTIPLAYER_CA1\MPCA1_STEPHENOMALLEY\MPCA1_STEPHENOMALLEY\PLAYER.CPP
^C:\COLLEGE\4TH YEAR\MULTI-PLAYER DISTRIBUTED PROGRAMMING(C++)\CA1\MULTIPLAYER_CA1\MPCA1_STEPHENOMALLEY\MPCA1_STEPHENOMALLEY\POSTEFFECT.CPP
/c /I"C:\COLLEGE\4TH YEAR\MULTI-PLAYER DISTRIBUTED PROGRAMMING(C++)\SFML-2.5.0-WINDOWS-VC15-32-BIT\SFML-2.5.0\INCLUDE" /ZI /nologo /W3 /WX- /diagnostics:classic /sdl /Od /Oy- /D _MBCS /Gm /EHsc /RTC1 /MDd /GS /fp:precise /permissive- /Zc:wchar_t /Zc:forScope /Zc:inline /Fo"DEBUG\\" /Fd"DEBUG\VC141.PDB" /Gd /TP /analyze- C:\COLLEGE\4TH YEAR\MULTI-PLAYER DISTRIBUTED PROGRAMMING(C++)\CA1\MULTIPLAYER_CA1\MPCA1_STEPHENOMALLEY\MPCA1_STEPHENOMALLEY\POSTEFFECT.CPP
^C:\COLLEGE\4TH YEAR\MULTI-PLAYER DISTRIBUTED PROGRAMMING(C++)\CA1\MULTIPLAYER_CA1\MPCA1_STEPHENOMALLEY\MPCA1_STEPHENOMALLEY\PROJECTILE.CPP
/c /I"C:\COLLEGE\4TH YEAR\MULTI-PLAYER DISTRIBUTED PROGRAMMING(C++)\SFML-2.5.0-WINDOWS-VC15-32-BIT\SFML-2.5.0\INCLUDE" /ZI /nologo /W3 /WX- /diagnostics:classic /sdl /Od /Oy- /D _MBCS /Gm /EHsc /RTC1 /MDd /GS /fp:precise /permissive- /Zc:wchar_t /Zc:forScope /Zc:inline /Fo"DEBUG\\" /Fd"DEBUG\VC141.PDB" /Gd /TP /analyze- C:\COLLEGE\4TH YEAR\MULTI-PLAYER DISTRIBUTED PROGRAMMING(C++)\CA1\MULTIPLAYER_CA1\MPCA1_STEPHENOMALLEY\MPCA1_STEPHENOMALLEY\PROJECTILE.CPP
^C:\COLLEGE\4TH YEAR\MULTI-PLAYER DISTRIBUTED PROGRAMMING(C++)\CA1\MULTIPLAYER_CA1\MPCA1_STEPHENOMALLEY\MPCA1_STEPHENOMALLEY\SCENENODE.CPP
/c /I"C:\COLLEGE\4TH YEAR\MULTI-PLAYER DISTRIBUTED PROGRAMMING(C++)\SFML-2.5.0-WINDOWS-VC15-32-BIT\SFML-2.5.0\INCLUDE" /ZI /nologo /W3 /WX- /diagnostics:classic /sdl /Od /Oy- /D _MBCS /Gm /EHsc /RTC1 /MDd /GS /fp:precise /permissive- /Zc:wchar_t /Zc:forScope /Zc:inline /Fo"DEBUG\\" /Fd"DEBUG\VC141.PDB" /Gd /TP /analyze- C:\COLLEGE\4TH YEAR\MULTI-PLAYER DISTRIBUTED PROGRAMMING(C++)\CA1\MULTIPLAYER_CA1\MPCA1_STEPHENOMALLEY\MPCA1_STEPHENOMALLEY\SCENENODE.CPP
^C:\COLLEGE\4TH YEAR\MULTI-PLAYER DISTRIBUTED PROGRAMMING(C++)\CA1\MULTIPLAYER_CA1\MPCA1_STEPHENOMALLEY\MPCA1_STEPHENOMALLEY\SETTINGSSTATE.CPP
/c /I"C:\COLLEGE\4TH YEAR\MULTI-PLAYER DISTRIBUTED PROGRAMMING(C++)\SFML-2.5.0-WINDOWS-VC15-32-BIT\SFML-2.5.0\INCLUDE" /ZI /nologo /W3 /WX- /diagnostics:classic /sdl /Od /Oy- /D _MBCS /Gm /EHsc /RTC1 /MDd /GS /fp:precise /permissive- /Zc:wchar_t /Zc:forScope /Zc:inline /Fo"DEBUG\\" /Fd"DEBUG\VC141.PDB" /Gd /TP /analyze- C:\COLLEGE\4TH YEAR\MULTI-PLAYER DISTRIBUTED PROGRAMMING(C++)\CA1\MULTIPLAYER_CA1\MPCA1_STEPHENOMALLEY\MPCA1_STEPHENOMALLEY\SETTINGSSTATE.CPP
^C:\COLLEGE\4TH YEAR\MULTI-PLAYER DISTRIBUTED PROGRAMMING(C++)\CA1\MULTIPLAYER_CA1\MPCA1_STEPHENOMALLEY\MPCA1_STEPHENOMALLEY\SOUNDNODE.CPP
/c /I"C:\COLLEGE\4TH YEAR\MULTI-PLAYER DISTRIBUTED PROGRAMMING(C++)\SFML-2.5.0-WINDOWS-VC15-32-BIT\SFML-2.5.0\INCLUDE" /ZI /nologo /W3 /WX- /diagnostics:classic /sdl /Od /Oy- /D _MBCS /Gm /EHsc /RTC1 /MDd /GS /fp:precise /permissive- /Zc:wchar_t /Zc:forScope /Zc:inline /Fo"DEBUG\\" /Fd"DEBUG\VC141.PDB" /Gd /TP /analyze- C:\COLLEGE\4TH YEAR\MULTI-PLAYER DISTRIBUTED PROGRAMMING(C++)\CA1\MULTIPLAYER_CA1\MPCA1_STEPHENOMALLEY\MPCA1_STEPHENOMALLEY\SOUNDNODE.CPP
^C:\COLLEGE\4TH YEAR\MULTI-PLAYER DISTRIBUTED PROGRAMMING(C++)\CA1\MULTIPLAYER_CA1\MPCA1_STEPHENOMALLEY\MPCA1_STEPHENOMALLEY\SOUNDPLAYER.CPP
/c /I"C:\COLLEGE\4TH YEAR\MULTI-PLAYER DISTRIBUTED PROGRAMMING(C++)\SFML-2.5.0-WINDOWS-VC15-32-BIT\SFML-2.5.0\INCLUDE" /ZI /nologo /W3 /WX- /diagnostics:classic /sdl /Od /Oy- /D _MBCS /Gm /EHsc /RTC1 /MDd /GS /fp:precise /permissive- /Zc:wchar_t /Zc:forScope /Zc:inline /Fo"DEBUG\\" /Fd"DEBUG\VC141.PDB" /Gd /TP /analyze- C:\COLLEGE\4TH YEAR\MULTI-PLAYER DISTRIBUTED PROGRAMMING(C++)\CA1\MULTIPLAYER_CA1\MPCA1_STEPHENOMALLEY\MPCA1_STEPHENOMALLEY\SOUNDPLAYER.CPP
^C:\COLLEGE\4TH YEAR\MULTI-PLAYER DISTRIBUTED PROGRAMMING(C++)\CA1\MULTIPLAYER_CA1\MPCA1_STEPHENOMALLEY\MPCA1_STEPHENOMALLEY\SPRITENODE.CPP
/c /I"C:\COLLEGE\4TH YEAR\MULTI-PLAYER DISTRIBUTED PROGRAMMING(C++)\SFML-2.5.0-WINDOWS-VC15-32-BIT\SFML-2.5.0\INCLUDE" /ZI /nologo /W3 /WX- /diagnostics:classic /sdl /Od /Oy- /D _MBCS /Gm /EHsc /RTC1 /MDd /GS /fp:precise /permissive- /Zc:wchar_t /Zc:forScope /Zc:inline /Fo"DEBUG\\" /Fd"DEBUG\VC141.PDB" /Gd /TP /analyze- C:\COLLEGE\4TH YEAR\MULTI-PLAYER DISTRIBUTED PROGRAMMING(C++)\CA1\MULTIPLAYER_CA1\MPCA1_STEPHENOMALLEY\MPCA1_STEPHENOMALLEY\SPRITENODE.CPP
^C:\COLLEGE\4TH YEAR\MULTI-PLAYER DISTRIBUTED PROGRAMMING(C++)\CA1\MULTIPLAYER_CA1\MPCA1_STEPHENOMALLEY\MPCA1_STEPHENOMALLEY\STATE.CPP
/c /I"C:\COLLEGE\4TH YEAR\MULTI-PLAYER DISTRIBUTED PROGRAMMING(C++)\SFML-2.5.0-WINDOWS-VC15-32-BIT\SFML-2.5.0\INCLUDE" /ZI /nologo /W3 /WX- /diagnostics:classic /sdl /Od /Oy- /D _MBCS /Gm /EHsc /RTC1 /MDd /GS /fp:precise /permissive- /Zc:wchar_t /Zc:forScope /Zc:inline /Fo"DEBUG\\" /Fd"DEBUG\VC141.PDB" /Gd /TP /analyze- C:\COLLEGE\4TH YEAR\MULTI-PLAYER DISTRIBUTED PROGRAMMING(C++)\CA1\MULTIPLAYER_CA1\MPCA1_STEPHENOMALLEY\MPCA1_STEPHENOMALLEY\STATE.CPP
^C:\COLLEGE\4TH YEAR\MULTI-PLAYER DISTRIBUTED PROGRAMMING(C++)\CA1\MULTIPLAYER_CA1\MPCA1_STEPHENOMALLEY\MPCA1_STEPHENOMALLEY\STATESTACK.CPP
/c /I"C:\COLLEGE\4TH YEAR\MULTI-PLAYER DISTRIBUTED PROGRAMMING(C++)\SFML-2.5.0-WINDOWS-VC15-32-BIT\SFML-2.5.0\INCLUDE" /ZI /nologo /W3 /WX- /diagnostics:classic /sdl /Od /Oy- /D _MBCS /Gm /EHsc /RTC1 /MDd /GS /fp:precise /permissive- /Zc:wchar_t /Zc:forScope /Zc:inline /Fo"DEBUG\\" /Fd"DEBUG\VC141.PDB" /Gd /TP /analyze- C:\COLLEGE\4TH YEAR\MULTI-PLAYER DISTRIBUTED PROGRAMMING(C++)\CA1\MULTIPLAYER_CA1\MPCA1_STEPHENOMALLEY\MPCA1_STEPHENOMALLEY\STATESTACK.CPP
^C:\COLLEGE\4TH YEAR\MULTI-PLAYER DISTRIBUTED PROGRAMMING(C++)\CA1\MULTIPLAYER_CA1\MPCA1_STEPHENOMALLEY\MPCA1_STEPHENOMALLEY\TEXTNODE.CPP
/c /I"C:\COLLEGE\4TH YEAR\MULTI-PLAYER DISTRIBUTED PROGRAMMING(C++)\SFML-2.5.0-WINDOWS-VC15-32-BIT\SFML-2.5.0\INCLUDE" /ZI /nologo /W3 /WX- /diagnostics:classic /sdl /Od /Oy- /D _MBCS /Gm /EHsc /RTC1 /MDd /GS /fp:precise /permissive- /Zc:wchar_t /Zc:forScope /Zc:inline /Fo"DEBUG\\" /Fd"DEBUG\VC141.PDB" /Gd /TP /analyze- C:\COLLEGE\4TH YEAR\MULTI-PLAYER DISTRIBUTED PROGRAMMING(C++)\CA1\MULTIPLAYER_CA1\MPCA1_STEPHENOMALLEY\MPCA1_STEPHENOMALLEY\TEXTNODE.CPP
^C:\COLLEGE\4TH YEAR\MULTI-PLAYER DISTRIBUTED PROGRAMMING(C++)\CA1\MULTIPLAYER_CA1\MPCA1_STEPHENOMALLEY\MPCA1_STEPHENOMALLEY\TITLESTATE.CPP
/c /I"C:\COLLEGE\4TH YEAR\MULTI-PLAYER DISTRIBUTED PROGRAMMING(C++)\SFML-2.5.0-WINDOWS-VC15-32-BIT\SFML-2.5.0\INCLUDE" /ZI /nologo /W3 /WX- /diagnostics:classic /sdl /Od /Oy- /D _MBCS /Gm /EHsc /RTC1 /MDd /GS /fp:precise /permissive- /Zc:wchar_t /Zc:forScope /Zc:inline /Fo"DEBUG\\" /Fd"DEBUG\VC141.PDB" /Gd /TP /analyze- C:\COLLEGE\4TH YEAR\MULTI-PLAYER DISTRIBUTED PROGRAMMING(C++)\CA1\MULTIPLAYER_CA1\MPCA1_STEPHENOMALLEY\MPCA1_STEPHENOMALLEY\TITLESTATE.CPP
^C:\COLLEGE\4TH YEAR\MULTI-PLAYER DISTRIBUTED PROGRAMMING(C++)\CA1\MULTIPLAYER_CA1\MPCA1_STEPHENOMALLEY\MPCA1_STEPHENOMALLEY\UTILITY.CPP
/c /I"C:\COLLEGE\4TH YEAR\MULTI-PLAYER DISTRIBUTED PROGRAMMING(C++)\SFML-2.5.0-WINDOWS-VC15-32-BIT\SFML-2.5.0\INCLUDE" /ZI /nologo /W3 /WX- /diagnostics:classic /sdl /Od /Oy- /D _MBCS /Gm /EHsc /RTC1 /MDd /GS /fp:precise /permissive- /Zc:wchar_t /Zc:forScope /Zc:inline /Fo"DEBUG\\" /Fd"DEBUG\VC141.PDB" /Gd /TP /analyze- C:\COLLEGE\4TH YEAR\MULTI-PLAYER DISTRIBUTED PROGRAMMING(C++)\CA1\MULTIPLAYER_CA1\MPCA1_STEPHENOMALLEY\MPCA1_STEPHENOMALLEY\UTILITY.CPP
^C:\COLLEGE\4TH YEAR\MULTI-PLAYER DISTRIBUTED PROGRAMMING(C++)\CA1\MULTIPLAYER_CA1\MPCA1_STEPHENOMALLEY\MPCA1_STEPHENOMALLEY\WALL.CPP
/c /I"C:\COLLEGE\4TH YEAR\MULTI-PLAYER DISTRIBUTED PROGRAMMING(C++)\SFML-2.5.0-WINDOWS-VC15-32-BIT\SFML-2.5.0\INCLUDE" /ZI /nologo /W3 /WX- /diagnostics:classic /sdl /Od /Oy- /D _MBCS /Gm /EHsc /RTC1 /MDd /GS /fp:precise /permissive- /Zc:wchar_t /Zc:forScope /Zc:inline /Fo"DEBUG\\" /Fd"DEBUG\VC141.PDB" /Gd /TP /analyze- C:\COLLEGE\4TH YEAR\MULTI-PLAYER DISTRIBUTED PROGRAMMING(C++)\CA1\MULTIPLAYER_CA1\MPCA1_STEPHENOMALLEY\MPCA1_STEPHENOMALLEY\WALL.CPP
^C:\COLLEGE\4TH YEAR\MULTI-PLAYER DISTRIBUTED PROGRAMMING(C++)\CA1\MULTIPLAYER_CA1\MPCA1_STEPHENOMALLEY\MPCA1_STEPHENOMALLEY\WALLNODE.CPP
/c /I"C:\COLLEGE\4TH YEAR\MULTI-PLAYER DISTRIBUTED PROGRAMMING(C++)\SFML-2.5.0-WINDOWS-VC15-32-BIT\SFML-2.5.0\INCLUDE" /ZI /nologo /W3 /WX- /diagnostics:classic /sdl /Od /Oy- /D _MBCS /Gm /EHsc /RTC1 /MDd /GS /fp:precise /permissive- /Zc:wchar_t /Zc:forScope /Zc:inline /Fo"DEBUG\\" /Fd"DEBUG\VC141.PDB" /Gd /TP /analyze- C:\COLLEGE\4TH YEAR\MULTI-PLAYER DISTRIBUTED PROGRAMMING(C++)\CA1\MULTIPLAYER_CA1\MPCA1_STEPHENOMALLEY\MPCA1_STEPHENOMALLEY\WALLNODE.CPP
^C:\COLLEGE\4TH YEAR\MULTI-PLAYER DISTRIBUTED PROGRAMMING(C++)\CA1\MULTIPLAYER_CA1\MPCA1_STEPHENOMALLEY\MPCA1_STEPHENOMALLEY\WORLD.CPP
/c /I"C:\COLLEGE\4TH YEAR\MULTI-PLAYER DISTRIBUTED PROGRAMMING(C++)\SFML-2.5.0-WINDOWS-VC15-32-BIT\SFML-2.5.0\INCLUDE" /ZI /nologo /W3 /WX- /diagnostics:classic /sdl /Od /Oy- /D _MBCS /Gm /EHsc /RTC1 /MDd /GS /fp:precise /permissive- /Zc:wchar_t /Zc:forScope /Zc:inline /Fo"DEBUG\\" /Fd"DEBUG\VC141.PDB" /Gd /TP /analyze- C:\COLLEGE\4TH YEAR\MULTI-PLAYER DISTRIBUTED PROGRAMMING(C++)\CA1\MULTIPLAYER_CA1\MPCA1_STEPHENOMALLEY\MPCA1_STEPHENOMALLEY\WORLD.CPP
